…
我把第一列刪掉後，再將用不到的欄位刪除，並且把教育相關欄位轉換成整數，接下來請用 `df_education` 作答！

### 1. `pivot_longer()`:

現在的資料是一個寬表格(wide)，請利用 `pivot_longer()` 或是 `gather()` 將它轉換成長表格(long)，儲存為 `df_education_long` ，並將 `df_education_long` 印出。

```{r message=FALSE, warning=FALSE}
### your code

### your result should be
#> # A tibble: 356,960 x 5
#>    district_code site_id      village key                        value
#>    <chr>         <chr>        <chr>   <chr>                      <int>
#>  1 65000010001   新北市板橋區 留侯里  edu_doctor_graduated_m         4
#>  2 65000010001   新北市板橋區 留侯里  edu_doctor_graduated_f         0
#>  3 65000010001   新北市板橋區 留侯里  edu_doctor_ungraduated_m       1
#>  4 65000010001   新北市板橋區 留侯里  edu_doctor_ungraduated_f       2
#>  5 65000010001   新北市板橋區 留侯里  edu_master_graduated_m        52
#>  6 65000010001   新北市板橋區 留侯里  edu_master_graduated_f        31
#>  7 65000010001   新北市板橋區 留侯里  edu_master_ungraduated_m      12
#>  8 65000010001   新北市板橋區 留侯里  edu_master_ungraduated_f       7
#>  9 65000010001   新北市板橋區 留侯里  edu_university_graduated_m   150
#> 10 65000010001   新北市板橋區 留侯里  edu_university_graduated_f   167
#> # … with 356,950 more rows
```
…
請觀察 `df_education_long` 當中 `key` 欄位的值，將 key 利用 `separate()` 切開成四個欄位，分別是`edu`, `level`, `edu_status`, `gender`，各自代表教育前綴詞、學位、教育狀態、性別。最後將結果儲存在 `df_education_long_cut` 當中，並將 `df_education_long_cut` 印出。如果你不懂這邊在說什麼，請參考老師本週第一支影片(R04_1_1 Loading MOI demographic data)，基本上就是按照裡面的流程進行。底下會遇到好切跟不好切的情況，遇到不好切的情況時可以使用 `str_replace()` 函數。

提示：

1. 你可以利用 `count()` 觀察 `key` 的結構。舉例來說， `edu_doctor_graduated_m` 應該切成 `edu` = "edu", `level` = "doctor", `edu_status` = "graduated", `gender` = "m"。
2. 不好切的情況(01)： `edu_illiterate_f` 代表不識字，沒辦法切成四塊，請想辦法將這個值切成 `edu` = "edu", `level` = "illiterate", `edu_status` = "all", `gender` = "f"。
3. 不好切的情況(02)： `edu_juniorcollege_2ys_graduated_m` 裡面多了一個 `_`，同樣沒辦法切成四塊，請想辦法將這個值切成 `edu` = "edu", `level` = "juniorcollege2ys", `edu_status` = "graduated", `gender` = "m"。
4. `str_replace(string = "小軒不喜歡吃肉", pattern = "不喜歡", replacement = "超討厭")` 的意思是把 `string` 參數當中滿足 `pattern` 參數的字串替換成 `replacement` 參數的值，所以結果會是 `"小軒超討厭吃肉"`。

```{r message=FALSE, warning=FALSE}
### 這邊讓你看 key 的長相
# df_education_long %>% count(key)

### count 結果借你看
#> # A tibble: 46 x 2
#>    key                          n
#>  * <chr>                    <int>
#>  1 edu_doctor_graduated_f    7760
#>  2 edu_doctor_graduated_m    7760
#>  3 edu_doctor_ungraduated_f  7760
#>  4 edu_doctor_ungraduated_m  7760
#>  5 edu_illiterate_f          7760
#>  6 edu_illiterate_m          7760
#>  7 edu_junior_graduated_f    7760
#>  8 edu_junior_graduated_m    7760
#>  9 edu_junior_ungraduated_f  7760
#> 10 edu_junior_ungraduated_m  7760
#> # … with 36 more rows

### your code


### your result should be
#> # A tibble: 356,960 x 8
#>    district_code site_id      village edu   level      graduate    gender value
#>    <chr>         <chr>        <chr>   <chr> <chr>      <chr>       <chr>  <int>
#>  1 65000010001   新北市板橋區 留侯里  edu   doctor     graduated   m          4
#>  2 65000010001   新北市板橋區 留侯里  edu   doctor     graduated   f          0
#>  3 65000010001   新北市板橋區 留侯里  edu   doctor     ungraduated m          1
#>  4 65000010001   新北市板橋區 留侯里  edu   doctor     ungraduated f          2
#>  5 65000010001   新北市板橋區 留侯里  edu   master     graduated   m         52
#>  6 65000010001   新北市板橋區 留侯里  edu   master     graduated   f         31
#>  7 65000010001   新北市板橋區 留侯里  edu   master     ungraduated m         12
#>  8 65000010001   新北市板橋區 留侯里  edu   master     ungraduated f          7
#>  9 65000010001   新北市板橋區 留侯里  edu   university graduated   m        150
#> 10 65000010001   新北市板橋區 留侯里  edu   university graduated   f        167
#> # … with 356,950 more rows
```


### 3. `group_by()` and `summarize()`:

請計算以區域別(site_id) 為單位的教育統計，產出的欄位包含 n_sum(15歲以上現住人口總人數), n_female(女性15歲以上現住人口總人數), n_higher(高等教育總人數, 包含博士、碩士、大學，畢業與肄業皆計入), n_higher_female(女性高等教育總人數), n_self(自學總人數), n_illiterate(不識字總人數)，把資料儲存為 `df_education_agg`，並且將 `df_education_agg` 印出。

```{r message=FALSE, warning=FALSE}
### your code

### your result should be
#> # A tibble: 370 x 7
#>    site_id      n_sum n_female n_higher n_higher_female n_self n_illiterate
#>  * <chr>        <int>    <int>    <int>           <int>  <int>        <int>
#>  1 南投縣中寮鄉 13571     6187     2339            1141     38          380
#>  2 南投縣仁愛鄉 13158     6386     2029            1088     31           51
#>  3 南投縣信義鄉 13847     6418     2482            1210     64           76
#>  4 南投縣南投市 87696    44119    28352           13650     88          791
#>  5 南投縣名間鄉 34622    16354     7706            3726    108          306
#>  6 南投縣國姓鄉 17132     7860     2937            1386     34          410
#>  7 南投縣埔里鎮 71529    36009    17679            8941     99          749
#>  8 南投縣水里鄉 15960     7561     3131            1489     38          266
#>  9 南投縣竹山鎮 48789    23780    11115            5336    785            0
#> 10 南投縣草屯鎮 86210    42768    25906           12396    135         1040
#> # … with 360 more rows
```
…
```{r message=FALSE, warning=FALSE}
### 這裡不要動
ref10 <- read_csv("data/AS04/ref10_town.csv") %>%
  select(county = 縣市, town = 鄉鎮市區,
         agree = 同意票數, disagree = 不同意票數,
         legalVote = 有效票數, illegalVote = 無效票數, 
         vote = 投票數, legalPopulation =  投票權人數)  %>%
  mutate(site_id = str_c(county, town)) %>%
  select(-c(county, town)) %>%
  drop_na(site_id) %>% select(site_id, everything())

### your code

### your result should be
#> # A tibble: 368 x 13
#>    site_id     n_sum n_female n_higher n_higher_female n_self n_illiterate agree
#>    <chr>       <int>    <int>    <int>           <int>  <int>        <int> <dbl>
#>  1 南投縣中寮鄉… 13571     6187     2339            1141     38          380  5748
#>  2 南投縣仁愛鄉… 13158     6386     2029            1088     31           51  5702
#>  3 南投縣信義鄉… 13847     6418     2482            1210     64           76  6891
#>  4 南投縣南投市… 87696    44119    28352           13650     88          791 37547
#>  5 南投縣名間鄉… 34622    16354     7706            3726    108          306 14533
#>  6 南投縣國姓鄉… 17132     7860     2937            1386     34          410  7089
#>  7 南投縣埔里鎮… 71529    36009    17679            8941     99          749 29571
#>  8 南投縣水里鄉… 15960     7561     3131            1489     38          266  6392
#>  9 南投縣竹山鎮… 48789    23780    11115            5336    785            0 19254
#> 10 南投縣草屯鎮… 86210    42768    25906           12396    135         1040 35215
#> # … with 358 more rows, and 5 more variables: disagree <dbl>, legalVote <dbl>,
#> #   illegalVote <dbl>, vote <dbl>, legalPopulation <dbl>
```
…
