AS04_Data-Manipulation-Joining_ref
…
我把第一列刪掉後，再將用不到的欄位刪除，並且把教育相關欄位轉換成整數，接下來請用 df_education 作答！

1. pivot_longer():

現在的資料是一個寬表格(wide)，請利用 pivot_longer() 或是 gather() 將它轉換成長表格(long)，儲存為 df_education_long ，並將 df_education_long 印出。

### your code
df_education_long <- df_education %>% 
  pivot_longer(cols = -c(1:3), names_to = "key", values_to = "value")

df_education_long
### your result should be

#> # A tibble: 356,960 x 5
#>    district_code site_id      village key                        value
#>    <chr>         <chr>        <chr>   <chr>                      <int>
#>  1 65000010001   新北市板橋區 留侯里  edu_doctor_graduated_m         4
#>  2 65000010001   新北市板橋區 留侯里  edu_doctor_graduated_f         0
#>  3 65000010001   新北市板橋區 留侯里  edu_doctor_ungraduated_m       1
#>  4 65000010001   新北市板橋區 留侯里  edu_doctor_ungraduated_f       2
#>  5 65000010001   新北市板橋區 留侯里  edu_master_graduated_m        52
#>  6 65000010001   新北市板橋區 留侯里  edu_master_graduated_f        31
#>  7 65000010001   新北市板橋區 留侯里  edu_master_ungraduated_m      12
#>  8 65000010001   新北市板橋區 留侯里  edu_master_ungraduated_f       7
#>  9 65000010001   新北市板橋區 留侯里  edu_university_graduated_m   150
#> 10 65000010001   新北市板橋區 留侯里  edu_university_graduated_f   167
#> # … with 356,950 more rows
…
df_education_long_cut

### your result should be

#> # A tibble: 46 x 2
#>    key                          n
#>  * <chr>                    <int>
#>  1 edu_doctor_graduated_f    7760
#>  2 edu_doctor_graduated_m    7760
#>  3 edu_doctor_ungraduated_f  7760
#>  4 edu_doctor_ungraduated_m  7760
#>  5 edu_illiterate_f          7760
#>  6 edu_illiterate_m          7760
#>  7 edu_junior_graduated_f    7760
#>  8 edu_junior_graduated_m    7760
#>  9 edu_junior_ungraduated_f  7760
#> 10 edu_junior_ungraduated_m  7760
#> # … with 36 more rows
#> # A tibble: 356,960 x 8
#>    district_code site_id      village edu   level      graduate    gender value
#>    <chr>         <chr>        <chr>   <chr> <chr>      <chr>       <chr>  <int>
#>  1 65000010001   新北市板橋區 留侯里  edu   doctor     graduated   m          4
#>  2 65000010001   新北市板橋區 留侯里  edu   doctor     graduated   f          0
#>  3 65000010001   新北市板橋區 留侯里  edu   doctor     ungraduated m          1
#>  4 65000010001   新北市板橋區 留侯里  edu   doctor     ungraduated f          2
#>  5 65000010001   新北市板橋區 留侯里  edu   master     graduated   m         52
#>  6 65000010001   新北市板橋區 留侯里  edu   master     graduated   f         31
#>  7 65000010001   新北市板橋區 留侯里  edu   master     ungraduated m         12
#>  8 65000010001   新北市板橋區 留侯里  edu   master     ungraduated f          7
#>  9 65000010001   新北市板橋區 留侯里  edu   university graduated   m        150
#> 10 65000010001   新北市板橋區 留侯里  edu   university graduated   f        167
#> # … with 356,950 more rows
…
### your code
df_education_agg <- df_education_long_cut %>%
  group_by(site_id) %>%
  summarise(n_sum = sum(value),
            n_female = sum(value[gender == "f"]),
            n_higher = sum(value[level %in% c("doctor", "master", "university")]),
            n_higher_female = sum(value[level %in% c("doctor", "master", "university") & gender == "f"]),
            n_self = sum(value[level == "selftaughtl"]),
            n_illiterate = sum(value[level == "illiterate"]))

df_education_agg

### your result should be

#> # A tibble: 370 x 7
#>    site_id      n_sum n_female n_higher n_higher_female n_self n_illiterate
#>  * <chr>        <int>    <int>    <int>           <int>  <int>        <int>
#>  1 南投縣中寮鄉 13571     6187     2339            1141     38          380
#>  2 南投縣仁愛鄉 13158     6386     2029            1088     31           51
#>  3 南投縣信義鄉 13847     6418     2482            1210     64           76
#>  4 南投縣南投市 87696    44119    28352           13650     88          791
#>  5 南投縣名間鄉 34622    16354     7706            3726    108          306
#>  6 南投縣國姓鄉 17132     7860     2937            1386     34          410
#>  7 南投縣埔里鎮 71529    36009    17679            8941     99          749
#>  8 南投縣水里鄉 15960     7561     3131            1489     38          266
#>  9 南投縣竹山鎮 48789    23780    11115            5336    785            0
#> 10 南投縣草屯鎮 86210    42768    25906           12396    135         1040
#> # … with 360 more rows
…
#>  5 臺中市中　區…  15264     7759     5130            2499     23           58    NA
#>  6 臺中市北　區… 129168    68180    53046           26120    135          513    NA
#>  7 臺中市南　區… 108248    57055    46749           23674    176          427    NA
#>  8 臺中市東　區…  66792    33924    23149           11328     92          458    NA
#>  9 臺中市西　區…  99036    52767    45198           22567    145          351    NA
#> 10 臺南市北　區… 115147    59709    46231           22363    197          846    NA
#> 11 臺南市南　區… 112141    56919    37032           17795    477         1378    NA
#> 12 臺南市東　區… 159900    84356    74752           36548    121          737    NA
#> 13 高雄市三民一…  71098    36225    25434           11944    129          566    NA
#> 14 高雄市三民二… 228702   120298    87996           43237    250         1423    NA
#> 15 高雄市鳳山一… 157809    81806    57083           27256    231         1415    NA
#> 16 高雄市鳳山二… 154832    79126    49108           23833    204         1448    NA
#> # … with 5 more variables: disagree <dbl>, legalVote <dbl>, illegalVote <dbl>,
#> #   vote <dbl>, legalPopulation <dbl>
#> # A tibble: 368 x 13
#>    site_id     n_sum n_female n_higher n_higher_female n_self n_illiterate agree
#>    <chr>       <int>    <int>    <int>           <int>  <int>        <int> <dbl>
#>  1 南投縣中寮鄉… 13571     6187     2339            1141     38          380  5748
#>  2 南投縣仁愛鄉… 13158     6386     2029            1088     31           51  5702
#>  3 南投縣信義鄉… 13847     6418     2482            1210     64           76  6891
#>  4 南投縣南投市… 87696    44119    28352           13650     88          791 37547
#>  5 南投縣名間鄉… 34622    16354     7706            3726    108          306 14533
#>  6 南投縣國姓鄉… 17132     7860     2937            1386     34          410  7089
#>  7 南投縣埔里鎮… 71529    36009    17679            8941     99          749 29571
#>  8 南投縣水里鄉… 15960     7561     3131            1489     38          266  6392
#>  9 南投縣竹山鎮… 48789    23780    11115            5336    785            0 19254
#> 10 南投縣草屯鎮… 86210    42768    25906           12396    135         1040 35215
#> # … with 358 more rows, and 5 more variables: disagree <dbl>, legalVote <dbl>,
#> #   illegalVote <dbl>, vote <dbl>, legalPopulation <dbl>
…
