Lab06_Visualizing-Text-Data
…
---

# dplyr 的未竟之業 - rowwise(), c_across()

```r
df_marriage %>% rowwise() %>% mutate(
    marry_sum = sum(c_across(marry_cp_cnt:marry_f_cnt)),
    marry_mean = mean(c_across(marry_cp_cnt:marry_f_cnt))
 ) %>% ungroup()
```

```
## # A tibble: 22 x 9
##    county_id county marry_cp_cnt marry_cnt marry_m_cnt marry_f_cnt info_time
##    <chr>     <chr>         <int>     <int>       <int>       <int> <chr>    
##  1 65000     新北市         6529       580         189         391 109Y4S   
##  2 63000     臺北市         3856       422         207         215 109Y4S   
##  3 68000     桃園市         3986       370         107         263 109Y4S   
##  4 66000     臺中市         4837       381         130         251 109Y4S   
##  5 67000     臺南市         2706       185          57         128 109Y4S   
##  6 64000     高雄市         4139       343         112         231 109Y4S   
##  7 10002     宜蘭縣          725        62          11          51 109Y4S   
##  8 10004     新竹縣         1003        71          13          58 109Y4S   
##  9 10005     苗栗縣          859        75          19          56 109Y4S   
## 10 10007     彰化縣         1882       161          32         129 109Y4S   
## # … with 12 more rows, and 2 more variables: marry_sum <int>, marry_mean <dbl>
```
…
