…
### 因為這題資料的缺失值會影響結果計算，因此全數踢掉
df_dmajor_105 <- df_dmajor_105 %>% drop_na()
```


### 1. `unite()` 和 `separte()`：

A. 現在的學號分開了，請幫我用 `"-"` 拼起來，欄位命名為 `ID`，存成 `df_dmajor_105_tmp` 後印出   
B. 再幫我把 `df_dmajor_105_tmp` 分開成三個欄位分別叫做 "ID_year", "ID_dept", "ID_order"，分開以後<span style="color: white;">回到一個人生活</span>

```{r message=FALSE, warning=FALSE}
### your code (A)

### your result should be
#> # A tibble: 498 x 5
#>    ID          dept_original grade name  dept_dmajor
#>    <chr>       <chr>         <dbl> <chr> <chr>      
#>  1 B02-A01-314 法律系財法組      4 蔡O軒 哲學系     
#>  2 B01-B01-076 法律系財法組      4 呂O禹 生科系     
#>  3 B03-A01-361 法律系財法組      3 于O庭 哲學系     
#>  4 B03-A01-345 法律系財法組      3 黃O文 社會系     
#>  5 B04-A01-349 法律系財法組      2 蔣O謙 歷史系     
#>  6 B04-A01-326 法律系財法組      2 卓O廷 會計系     
#>  7 B03-A01-305 法律系財法組      2 黃O晴 財金系     
#>  8 B02-A01-217 法律系司法組      4 曾O博 哲學系     
#>  9 B02-A01-214 法律系司法組      4 張O銘 經濟系     
#> 10 B01-303-022 法律系司法組      4 蔣O郁 經濟系     
#> # … with 488 more rows

### your code (B)

### your result should be
#> # A tibble: 498 x 7
#>    ID_year ID_dept ID_order dept_original grade name  dept_dmajor
#>    <chr>   <chr>   <chr>    <chr>         <dbl> <chr> <chr>      
#>  1 B02     A01     314      法律系財法組      4 蔡O軒 哲學系     
#>  2 B01     B01     076      法律系財法組      4 呂O禹 生科系     
#>  3 B03     A01     361      法律系財法組      3 于O庭 哲學系     
#>  4 B03     A01     345      法律系財法組      3 黃O文 社會系     
#>  5 B04     A01     349      法律系財法組      2 蔣O謙 歷史系     
#>  6 B04     A01     326      法律系財法組      2 卓O廷 會計系     
#>  7 B03     A01     305      法律系財法組      2 黃O晴 財金系     
#>  8 B02     A01     217      法律系司法組      4 曾O博 哲學系     
#>  9 B02     A01     214      法律系司法組      4 張O銘 經濟系     
#> 10 B01     303     022      法律系司法組      4 蔣O郁 經濟系     
#> # … with 488 more rows
…
### 4. `join()` and `mutate()`:

利用 `df_dmajor_105` 和 `df_college_join` 串接，請幫我計算各學院之間雙主修的人數，並且增加一個欄位，以原本學院為基礎，計算該學院雙主修到各學院的人數佔比。舉例來說，社科院有 5 人雙文學院、3 人雙工學院、2 人雙管理學院，請幫我計算出這些人數，以及社科雙文學院的佔比為 50%、雙工學院的佔比為 30%、雙管理學院的佔比為 20%，最後將結果儲存成 `df_dmajor_105_college` 並印出。

```{r message=FALSE, warning=FALSE}
### your code

### your result should be
#> # A tibble: 70 x 4
#> # Groups:   college_original [10]
#>    college_original college_dmajor     n     per
#>    <chr>            <chr>          <int>   <dbl>
#>  1 公衛學院         生科學院           1 1      
#>  2 工學院           工學院             6 0.2    
#>  3 工學院           文學院             3 0.1    
#>  4 工學院           理學院             7 0.233  
#>  5 工學院           生農學院           1 0.0333 
#>  6 工學院           社科院             7 0.233  
#>  7 工學院           管理學院           3 0.1    
#>  8 工學院           電資學院           3 0.1    
#>  9 文學院           公衛學院           1 0.00952
#> 10 文學院           工學院             1 0.00952
#> # … with 60 more rows
```
…
