Lab05_Data-Manipulation-Joining
…
---
# 作業檢討: 推薦 readr 套件的理由

- 第二題的檔案有中文、有不同型態的欄位

```r
df_main_clean
```

```
## # A tibble: 1,457 x 10
##    board  type   title   date       comments author  text      IP       link    
##    <chr>  <chr>  <chr>   <date>        <dbl> <chr>   <chr>     <chr>    <chr>   
##  1 Korea… [公告] Fw: [公… 2021-01-18       20 XDDDD5… "┌──┬│┌─… "※ 發信站:… https:/…
##  2 Korea… [新聞] [新聞] 柳… 2021-01-18        5 jinyi … "演員柳惠英被提… "※ 發信站:… https:/…
##  3 Korea… [閒聊] [閒聊]  … 2021-01-18      101 jay947… "花了幾個週末把… "※ 發信站:… https:/…
##  4 Korea… [新聞] [新聞] 孫… 2021-01-18        9 jinyi … "據多名電視臺相… "※ 發信站:… https:/…
##  5 Korea… [LIVE] [LIVE]… 2021-01-18      249 kawasa… "前輩，那支口紅… "※ 發信站:… https:/…
##  6 Korea… [LIVE] [LIVE]… 2021-01-18      406 tcchen… "劇名:▁▁▁▁… "※ 發信站:… https:/…
##  7 Korea… [LIVE] [LIVE]… 2021-01-18       80 diana8… "───────… "※ 發信站:… https:/…
##  8 Korea… [心得] [心得] 惡… 2021-01-18       28 analyt… "最後一集到底來… "※ 發信站:… https:/…
##  9 Korea… [求薦] [求薦] 想… 2021-01-18      214 greenb… "1.重刷doc… "※ 發信站:… https:/…
## 10 Korea… <NA>   看完13集驅… 2021-01-19       35 patty6… "不知道各位大大… "※ 發信站:… https:/…
## # … with 1,447 more rows, and 1 more variable: time <dttm>
```
…
---

# 作業檢討: 實際讀取 tsv

- GapMinder 題組

```r
df_test <- 
  read_delim("data/AS03/gapminder_raw.tsv", delim = ",")
df_test
```

```
## # A tibble: 1,703 x 1
##    `Afghanistan\tAsia\t1952\t28.801\t8425333\t779.4453145` 
##    <chr>                                                   
##  1 "Afghanistan\tAsia\t1957\t30.332\t9240934\t820.8530296" 
##  2 "Afghanistan\tAsia\t1962\t31.997\t10267083\t853.10071"  
##  3 "Afghanistan\tAsia\t1967\t34.02\t11537966\t836.1971382" 
##  4 "Afghanistan\tAsia\t1972\t36.088\t13079460\t739.9811058"
##  5 "Afghanistan\tAsia\t1977\t38.438\t14880372\t786.11336"  
##  6 "Afghanistan\tAsia\t1982\t39.854\t12881816\t978.0114388"
##  7 "Afghanistan\tAsia\t1987\t40.822\t13867957\t852.3959448"
##  8 "Afghanistan\tAsia\t1992\t41.674\t16317921\t649.3413952"
##  9 "Afghanistan\tAsia\t1997\t41.763\t22227415\t635.341351" 
## 10 "Afghanistan\tAsia\t2002\t42.129\t25268405\t726.7340548"
## # … with 1,693 more rows
```
…
---
# summarize(), group_by() and ungroup()

- 舉例
 - 計算各子板、各類型文章數量的**佔比**

```r
df_main_clean %>% group_by(board, type) %>%
  summarise(n = n()) %>%
  mutate(per = n/sum(n))
```

```
## # A tibble: 60 x 4
## # Groups:   board [4]
##    board       type       n     per
##    <chr>       <chr>  <int>   <dbl>
##  1 China-Drama [Live]    45 0.125  
##  2 China-Drama [公告]     4 0.0111 
##  3 China-Drama [創作]     9 0.0249 
##  4 China-Drama [問題]    33 0.0914 
##  5 China-Drama [心得]   128 0.355  
##  6 China-Drama [情報]    12 0.0332 
##  7 China-Drama [新聞]     9 0.0249 
##  8 China-Drama [板務]     1 0.00277
##  9 China-Drama [求薦]     7 0.0194 
## 10 China-Drama [討論]     1 0.00277
## # … with 50 more rows
```
…
